\babel@toc {polish}{}
\babel@toc {polish}{}
\contentsline {section}{\numberline {1}Dokumentacja - Serwer}{2}%
\contentsline {section}{\numberline {2}Dokumentacja - Klient}{2}%
\contentsline {section}{\numberline {3}Instrukcja obsługi - opis interfejsu użytkownika}{2}%
\contentsline {section}{\numberline {4}Tabelaryczny podział obowiązków}{2}%
\contentsline {section}{\numberline {5}Wykorzystane narzędzia i technologie}{2}%
