\relax 
\@nameuse{bbl@beforestart}
\catcode `"\active 
\babel@aux{polish}{}
\babel@aux{polish}{}
\@writefile{toc}{\contentsline {section}{\numberline {1}Dokumentacja - Serwer}{2}\protected@file@percent }
\@writefile{toc}{\contentsline {section}{\numberline {2}Dokumentacja - Klient}{2}\protected@file@percent }
\@writefile{toc}{\contentsline {section}{\numberline {3}Instrukcja obsługi - opis interfejsu użytkownika}{2}\protected@file@percent }
\@writefile{toc}{\contentsline {section}{\numberline {4}Tabelaryczny podział obowiązków}{2}\protected@file@percent }
\@writefile{toc}{\contentsline {section}{\numberline {5}Wykorzystane narzędzia i technologie}{2}\protected@file@percent }
